[0] Config.pm:311> INFO - This is Biber 2.16
[0] Config.pm:314> INFO - Logfile is 'Sentiment_Analysis_Paper.blg'
[77] biber-MSWIN32:340> INFO - === 
[102] Biber.pm:415> INFO - Reading 'Sentiment_Analysis_Paper.bcf'
[184] Biber.pm:952> INFO - Found 17 citekeys in bib section 0
[196] Biber.pm:4340> INFO - Processing section 0
[206] Biber.pm:4531> INFO - Looking for bibtex format file './common/Literatur.bib' for section 0
[241] bibtex.pm:1689> INFO - LaTeX decoding ...
[259] bibtex.pm:1494> INFO - Found BibTeX data source './common/Literatur.bib'
[289] Utils.pm:395> WARN - legacy month field 'June' in entry 'maas-EtAl:2011:ACL-HLT2011' is not an integer - this will probably not sort properly.
[377] UCollate.pm:68> INFO - Overriding locale 'en-US' defaults 'normalization = NFD' with 'normalization = prenormalized'
[377] UCollate.pm:68> INFO - Overriding locale 'en-US' defaults 'variable = shifted' with 'variable = non-ignorable'
[377] Biber.pm:4168> INFO - Sorting list 'none/global//global/global' of type 'entry' with template 'none' and locale 'en-US'
[377] Biber.pm:4174> INFO - No sort tailoring available for locale 'en-US'
[390] bbl.pm:654> INFO - Writing 'Sentiment_Analysis_Paper.bbl' with encoding 'UTF-8'
[404] bbl.pm:757> INFO - Output to Sentiment_Analysis_Paper.bbl
[407] Biber.pm:128> INFO - WARNINGS: 1
