\relax 
\providecommand\zref@newlabel[2]{}
\providecommand\hyper@newdestlabel[2]{}
\providecommand\babel@aux[2]{}
\@nameuse{bbl@beforestart}
\AC@reset@newl@bel
\providecommand\HyperFirstAtBeginDocument{\AtBeginDocument}
\HyperFirstAtBeginDocument{\ifx\hyper@anchor\@undefined
\global\let\oldcontentsline\contentsline
\gdef\contentsline#1#2#3#4{\oldcontentsline{#1}{#2}{#3}}
\global\let\oldnewlabel\newlabel
\gdef\newlabel#1#2{\newlabelxx{#1}#2}
\gdef\newlabelxx#1#2#3#4#5#6{\oldnewlabel{#1}{{#2}{#3}}}
\AtEndDocument{\ifx\hyper@anchor\@undefined
\let\contentsline\oldcontentsline
\let\newlabel\oldnewlabel
\fi}
\fi}
\global\let\hyper@last\relax 
\gdef\HyperFirstAtBeginDocument#1{#1}
\providecommand\HyField@AuxAddToFields[1]{}
\providecommand\HyField@AuxAddToCoFields[2]{}
\@writefile{toc}{\boolfalse {citerequest}\boolfalse {citetracker}\boolfalse {pagetracker}\boolfalse {backtracker}\relax }
\@writefile{lof}{\boolfalse {citerequest}\boolfalse {citetracker}\boolfalse {pagetracker}\boolfalse {backtracker}\relax }
\@writefile{lot}{\boolfalse {citerequest}\boolfalse {citetracker}\boolfalse {pagetracker}\boolfalse {backtracker}\relax }
\abx@aux@refcontext{none/global//global/global}
\babel@aux{english}{}
\abx@aux@cite{wang2016combination}
\abx@aux@segm{0}{0}{wang2016combination}
\abx@aux@cite{monkeylearn}
\abx@aux@segm{0}{0}{monkeylearn}
\abx@aux@cite{agarwal2016machine}
\abx@aux@segm{0}{0}{agarwal2016machine}
\abx@aux@cite{maas-EtAl:2011:ACL-HLT2011}
\abx@aux@segm{0}{0}{maas-EtAl:2011:ACL-HLT2011}
\abx@aux@cite{maas-EtAl:2011:ACL-HLT2011}
\abx@aux@segm{0}{0}{maas-EtAl:2011:ACL-HLT2011}
\abx@aux@cite{aggarwal2012mining}
\abx@aux@segm{0}{0}{aggarwal2012mining}
\abx@aux@cite{mattosinho2010mining}
\abx@aux@segm{0}{0}{mattosinho2010mining}
\abx@aux@cite{asghar2014review}
\abx@aux@segm{0}{0}{asghar2014review}
\@writefile{toc}{\contentsline {section}{\numberline {I}Introduction}{1}{section.1}\protected@file@percent }
\@writefile{toc}{\contentsline {section}{\numberline {II}Research Question}{1}{section.2}\protected@file@percent }
\@writefile{toc}{\contentsline {section}{\numberline {III}Dataset}{1}{section.3}\protected@file@percent }
\@writefile{toc}{\contentsline {section}{\numberline {IV}Pre-Processing}{1}{section.4}\protected@file@percent }
\@writefile{toc}{\contentsline {subsection}{\numberline {\mbox  {IV-A}}Cleaning the text}{1}{subsection.4.1}\protected@file@percent }
\@writefile{toc}{\contentsline {subsection}{\numberline {\mbox  {IV-B}}Stemming or Lemmatization}{1}{subsection.4.2}\protected@file@percent }
\abx@aux@cite{bird2009natural}
\abx@aux@segm{0}{0}{bird2009natural}
\abx@aux@cite{hochreiter1997long}
\abx@aux@segm{0}{0}{hochreiter1997long}
\abx@aux@cite{sundermeyer2012lstm}
\abx@aux@segm{0}{0}{sundermeyer2012lstm}
\abx@aux@cite{tensorflow2015-whitepaper}
\abx@aux@segm{0}{0}{tensorflow2015-whitepaper}
\abx@aux@cite{tensorflow2015-whitepaper}
\abx@aux@segm{0}{0}{tensorflow2015-whitepaper}
\abx@aux@cite{noble2006support}
\abx@aux@segm{0}{0}{noble2006support}
\abx@aux@cite{al2018deep}
\abx@aux@segm{0}{0}{al2018deep}
\abx@aux@cite{scikit-learn}
\abx@aux@segm{0}{0}{scikit-learn}
\@writefile{toc}{\contentsline {subsection}{\numberline {\mbox  {IV-C}}Stop Word Removal}{2}{subsection.4.3}\protected@file@percent }
\@writefile{toc}{\contentsline {section}{\numberline {V}Models}{2}{section.5}\protected@file@percent }
\@writefile{toc}{\contentsline {subsection}{\numberline {\mbox  {V-A}}LTSM}{2}{subsection.5.1}\protected@file@percent }
\@writefile{lof}{\contentsline {figure}{\numberline {1}{\ignorespaces Vectorized Review\relax }}{2}{figure.caption.1}\protected@file@percent }
\providecommand*\caption@xref[2]{\@setref\relax\@undefined{#1}}
\newlabel{vectorized_corpus}{{1}{2}{Vectorized Review\relax }{figure.caption.1}{}}
\@writefile{lof}{\contentsline {figure}{\numberline {2}{\ignorespaces Tensorflow model\relax }}{2}{figure.caption.2}\protected@file@percent }
\newlabel{tensorflow_model}{{2}{2}{Tensorflow model\relax }{figure.caption.2}{}}
\@writefile{toc}{\contentsline {subsection}{\numberline {\mbox  {V-B}}SVM}{2}{subsection.5.2}\protected@file@percent }
\@writefile{toc}{\contentsline {section}{\numberline {VI}Results}{3}{section.6}\protected@file@percent }
\@writefile{toc}{\contentsline {subsection}{\numberline {\mbox  {VI-A}}LTSM}{3}{subsection.6.1}\protected@file@percent }
\@writefile{toc}{\contentsline {subsection}{\numberline {\mbox  {VI-B}}SVM}{3}{subsection.6.2}\protected@file@percent }
\@writefile{lof}{\contentsline {figure}{\numberline {3}{\ignorespaces Change of Accuracy of the LTSM without stopwords\relax }}{3}{figure.caption.3}\protected@file@percent }
\newlabel{ac_nn_without_sw}{{3}{3}{Change of Accuracy of the LTSM without stopwords\relax }{figure.caption.3}{}}
\@writefile{lof}{\contentsline {figure}{\numberline {4}{\ignorespaces Change of Accuracy of the LTSM with stopwords\relax }}{3}{figure.caption.4}\protected@file@percent }
\newlabel{ac_nn_with_sw}{{4}{3}{Change of Accuracy of the LTSM with stopwords\relax }{figure.caption.4}{}}
\@writefile{lof}{\contentsline {figure}{\numberline {5}{\ignorespaces Confusion Matrix of SVM without Stopwords\relax }}{3}{figure.caption.5}\protected@file@percent }
\newlabel{cm_svm_without_sw}{{5}{3}{Confusion Matrix of SVM without Stopwords\relax }{figure.caption.5}{}}
\abx@aux@cite{shaukat2020sentiment}
\abx@aux@segm{0}{0}{shaukat2020sentiment}
\abx@aux@cite{maas-EtAl:2011:ACL-HLT2011}
\abx@aux@segm{0}{0}{maas-EtAl:2011:ACL-HLT2011}
\abx@aux@cite{mesnil2014ensemble}
\abx@aux@segm{0}{0}{mesnil2014ensemble}
\abx@aux@cite{wang2012baselines}
\abx@aux@segm{0}{0}{wang2012baselines}
\@writefile{lof}{\contentsline {figure}{\numberline {6}{\ignorespaces Confusion Matrix of SVM with Stopwords\relax }}{4}{figure.caption.6}\protected@file@percent }
\newlabel{cm_svm_with_sw}{{6}{4}{Confusion Matrix of SVM with Stopwords\relax }{figure.caption.6}{}}
\@writefile{toc}{\contentsline {section}{\numberline {VII}Conclusion}{4}{section.7}\protected@file@percent }
\@writefile{toc}{\contentsline {section}{\numberline {VIII}Improvements}{4}{section.8}\protected@file@percent }
\newlabel{LastPage}{{}{5}{}{page.5}{}}
\xdef\lastpage@lastpage{5}
\xdef\lastpage@lastpageHy{5}
\abx@aux@read@bbl@mdfivesum{E0639F13AF53B483F9158FC62730E2DD}
\abx@aux@refcontextdefaultsdone
\abx@aux@defaultrefcontext{0}{wang2016combination}{none/global//global/global}
\abx@aux@defaultrefcontext{0}{monkeylearn}{none/global//global/global}
\abx@aux@defaultrefcontext{0}{agarwal2016machine}{none/global//global/global}
\abx@aux@defaultrefcontext{0}{maas-EtAl:2011:ACL-HLT2011}{none/global//global/global}
\abx@aux@defaultrefcontext{0}{aggarwal2012mining}{none/global//global/global}
\abx@aux@defaultrefcontext{0}{mattosinho2010mining}{none/global//global/global}
\abx@aux@defaultrefcontext{0}{asghar2014review}{none/global//global/global}
\abx@aux@defaultrefcontext{0}{bird2009natural}{none/global//global/global}
\abx@aux@defaultrefcontext{0}{hochreiter1997long}{none/global//global/global}
\abx@aux@defaultrefcontext{0}{sundermeyer2012lstm}{none/global//global/global}
\abx@aux@defaultrefcontext{0}{tensorflow2015-whitepaper}{none/global//global/global}
\abx@aux@defaultrefcontext{0}{noble2006support}{none/global//global/global}
\abx@aux@defaultrefcontext{0}{al2018deep}{none/global//global/global}
\abx@aux@defaultrefcontext{0}{scikit-learn}{none/global//global/global}
\abx@aux@defaultrefcontext{0}{shaukat2020sentiment}{none/global//global/global}
\abx@aux@defaultrefcontext{0}{mesnil2014ensemble}{none/global//global/global}
\abx@aux@defaultrefcontext{0}{wang2012baselines}{none/global//global/global}
\gdef \@abspage@last{6}
